EESchema Schematic File Version 4
EELAYER 30 0
EELAYER END
$Descr A4 11693 8268
encoding utf-8
Sheet 1 1
Title ""
Date ""
Rev ""
Comp ""
Comment1 ""
Comment2 ""
Comment3 ""
Comment4 ""
$EndDescr
$Comp
L Device:R R5
U 1 1 5E1B4510
P 5300 2100
F 0 "R5" H 5370 2146 50  0000 L CNN
F 1 "2R" H 5370 2055 50  0000 L CNN
F 2 "Resistor_THT:R_Axial_DIN0207_L6.3mm_D2.5mm_P7.62mm_Horizontal" V 5230 2100 50  0001 C CNN
F 3 "~" H 5300 2100 50  0001 C CNN
	1    5300 2100
	1    0    0    -1  
$EndComp
$Comp
L Device:R R4
U 1 1 5E1B4943
P 5050 2100
F 0 "R4" H 5120 2146 50  0000 L CNN
F 1 "2R" H 5120 2055 50  0000 L CNN
F 2 "Resistor_THT:R_Axial_DIN0207_L6.3mm_D2.5mm_P7.62mm_Horizontal" V 4980 2100 50  0001 C CNN
F 3 "~" H 5050 2100 50  0001 C CNN
	1    5050 2100
	1    0    0    -1  
$EndComp
$Comp
L Device:R R3
U 1 1 5E1B4ADF
P 4800 2100
F 0 "R3" H 4870 2146 50  0000 L CNN
F 1 "2R" H 4870 2055 50  0000 L CNN
F 2 "Resistor_THT:R_Axial_DIN0207_L6.3mm_D2.5mm_P7.62mm_Horizontal" V 4730 2100 50  0001 C CNN
F 3 "~" H 4800 2100 50  0001 C CNN
	1    4800 2100
	1    0    0    -1  
$EndComp
$Comp
L Device:R R2
U 1 1 5E1B52E4
P 4600 2100
F 0 "R2" H 4670 2146 50  0000 L CNN
F 1 "2R" H 4670 2055 50  0000 L CNN
F 2 "Resistor_THT:R_Axial_DIN0207_L6.3mm_D2.5mm_P7.62mm_Horizontal" V 4530 2100 50  0001 C CNN
F 3 "~" H 4600 2100 50  0001 C CNN
	1    4600 2100
	1    0    0    -1  
$EndComp
$Comp
L Device:R R1
U 1 1 5E1B5503
P 4400 2100
F 0 "R1" H 4470 2146 50  0000 L CNN
F 1 "2R" H 4470 2055 50  0000 L CNN
F 2 "Resistor_THT:R_Axial_DIN0207_L6.3mm_D2.5mm_P7.62mm_Horizontal" V 4330 2100 50  0001 C CNN
F 3 "~" H 4400 2100 50  0001 C CNN
	1    4400 2100
	1    0    0    -1  
$EndComp
$Comp
L Device:LED D1
U 1 1 5E1B587B
P 3650 1050
F 0 "D1" V 3597 1128 50  0000 L CNN
F 1 "LED" V 3688 1128 50  0000 L CNN
F 2 "LED_THT:LED_D3.0mm" H 3650 1050 50  0001 C CNN
F 3 "~" H 3650 1050 50  0001 C CNN
	1    3650 1050
	0    1    1    0   
$EndComp
$Comp
L Device:LED D2
U 1 1 5E1B5DAE
P 3900 1050
F 0 "D2" V 3847 1128 50  0000 L CNN
F 1 "LED" V 3938 1128 50  0000 L CNN
F 2 "LED_THT:LED_D3.0mm" H 3900 1050 50  0001 C CNN
F 3 "~" H 3900 1050 50  0001 C CNN
	1    3900 1050
	0    1    1    0   
$EndComp
$Comp
L Device:LED D3
U 1 1 5E1B6112
P 4200 1050
F 0 "D3" V 4147 1128 50  0000 L CNN
F 1 "LED" V 4238 1128 50  0000 L CNN
F 2 "LED_THT:LED_D3.0mm" H 4200 1050 50  0001 C CNN
F 3 "~" H 4200 1050 50  0001 C CNN
	1    4200 1050
	0    1    1    0   
$EndComp
$Comp
L Device:LED D4
U 1 1 5E1B674D
P 4500 1050
F 0 "D4" V 4447 1128 50  0000 L CNN
F 1 "LED" V 4538 1128 50  0000 L CNN
F 2 "LED_THT:LED_D3.0mm" H 4500 1050 50  0001 C CNN
F 3 "~" H 4500 1050 50  0001 C CNN
	1    4500 1050
	0    1    1    0   
$EndComp
$Comp
L Device:LED D5
U 1 1 5E1B69C9
P 4750 1050
F 0 "D5" V 4697 1128 50  0000 L CNN
F 1 "LED" V 4788 1128 50  0000 L CNN
F 2 "LED_THT:LED_D3.0mm" H 4750 1050 50  0001 C CNN
F 3 "~" H 4750 1050 50  0001 C CNN
	1    4750 1050
	0    1    1    0   
$EndComp
$Comp
L Switch:SW_Push SW4
U 1 1 5E1BC2F2
P 6550 4850
F 0 "SW4" H 6550 5135 50  0000 C CNN
F 1 "SW_Push" H 6550 5044 50  0000 C CNN
F 2 "Button_Switch_SMD:SW_Push_1P1T_NO_6x6mm_H9.5mm" H 6550 5050 50  0001 C CNN
F 3 "~" H 6550 5050 50  0001 C CNN
	1    6550 4850
	1    0    0    -1  
$EndComp
$Comp
L Switch:SW_Push SW3
U 1 1 5E1BCB3A
P 6500 4400
F 0 "SW3" H 6500 4685 50  0000 C CNN
F 1 "SW_Push" H 6500 4594 50  0000 C CNN
F 2 "Button_Switch_SMD:SW_Push_1P1T_NO_6x6mm_H9.5mm" H 6500 4600 50  0001 C CNN
F 3 "~" H 6500 4600 50  0001 C CNN
	1    6500 4400
	1    0    0    -1  
$EndComp
$Comp
L Switch:SW_Push SW2
U 1 1 5E1BD0B9
P 6500 3950
F 0 "SW2" H 6500 4235 50  0000 C CNN
F 1 "SW_Push" H 6500 4144 50  0000 C CNN
F 2 "Button_Switch_SMD:SW_Push_1P1T_NO_6x6mm_H9.5mm" H 6500 4150 50  0001 C CNN
F 3 "~" H 6500 4150 50  0001 C CNN
	1    6500 3950
	1    0    0    -1  
$EndComp
$Comp
L Switch:SW_Push SW5
U 1 1 5E1BDCF4
P 6550 5250
F 0 "SW5" H 6550 5535 50  0000 C CNN
F 1 "SW_Push" H 6550 5444 50  0000 C CNN
F 2 "Button_Switch_SMD:SW_Push_1P1T_NO_6x6mm_H9.5mm" H 6550 5450 50  0001 C CNN
F 3 "~" H 6550 5450 50  0001 C CNN
	1    6550 5250
	1    0    0    -1  
$EndComp
$Comp
L Switch:SW_Push SW1
U 1 1 5E1BE0A1
P 6500 3500
F 0 "SW1" H 6500 3785 50  0000 C CNN
F 1 "SW_Push" H 6500 3694 50  0000 C CNN
F 2 "Button_Switch_SMD:SW_Push_1P1T_NO_6x6mm_H9.5mm" H 6500 3700 50  0001 C CNN
F 3 "~" H 6500 3700 50  0001 C CNN
	1    6500 3500
	1    0    0    -1  
$EndComp
$Comp
L lab-rescue:LM016L-LM016L DS1
U 1 1 5E1D4471
P 7450 1300
F 0 "DS1" V 7396 570 50  0000 R CNN
F 1 "LM016L" V 7305 570 50  0000 R CNN
F 2 "Display:LM16255" H 7450 1300 50  0000 L BNN
F 3 "Hitachi" H 7450 1300 50  0001 L BNN
	1    7450 1300
	0    -1   -1   0   
$EndComp
Wire Wire Line
	6050 3500 6300 3500
Wire Wire Line
	6050 3950 6300 3950
Wire Wire Line
	6050 4400 6300 4400
Wire Wire Line
	6050 4850 6350 4850
Wire Wire Line
	6050 5250 6350 5250
$Comp
L power:Earth #PWR06
U 1 1 5E1DACFC
P 9000 900
F 0 "#PWR06" H 9000 650 50  0001 C CNN
F 1 "Earth" H 9000 750 50  0001 C CNN
F 2 "" H 9000 900 50  0001 C CNN
F 3 "~" H 9000 900 50  0001 C CNN
	1    9000 900 
	0    -1   -1   0   
$EndComp
$Comp
L power:Earth #PWR03
U 1 1 5E208E65
P 3250 3250
F 0 "#PWR03" H 3250 3000 50  0001 C CNN
F 1 "Earth" H 3250 3100 50  0001 C CNN
F 2 "" H 3250 3250 50  0001 C CNN
F 3 "~" H 3250 3250 50  0001 C CNN
	1    3250 3250
	0    1    1    0   
$EndComp
Wire Wire Line
	4250 2550 4400 2550
Wire Wire Line
	4400 2550 4400 2250
Wire Wire Line
	4250 2650 4600 2650
Wire Wire Line
	4600 2650 4600 2250
Wire Wire Line
	4250 2750 4800 2750
Wire Wire Line
	4800 2750 4800 2250
Wire Wire Line
	4250 2850 5050 2850
Wire Wire Line
	5050 2850 5050 2250
Wire Wire Line
	4250 2950 5300 2950
Wire Wire Line
	5300 2950 5300 2250
Wire Wire Line
	4400 1950 4400 1750
Wire Wire Line
	4400 1750 3650 1750
Wire Wire Line
	3650 1750 3650 1200
Wire Wire Line
	4600 1950 4600 1700
Wire Wire Line
	4600 1700 3900 1700
Wire Wire Line
	3900 1700 3900 1200
Wire Wire Line
	4800 1950 4800 1650
Wire Wire Line
	4800 1650 4200 1650
Wire Wire Line
	4200 1650 4200 1200
Wire Wire Line
	5050 1950 5050 1600
Wire Wire Line
	5050 1600 4500 1600
Wire Wire Line
	4500 1600 4500 1200
Wire Wire Line
	5300 1950 5300 1550
Wire Wire Line
	5300 1550 4750 1550
Wire Wire Line
	4750 1550 4750 1200
Wire Wire Line
	3650 750  3650 900 
Wire Wire Line
	3900 750  3900 900 
Wire Wire Line
	4200 750  4200 900 
Wire Wire Line
	4500 750  4500 900 
Wire Wire Line
	4750 750  4750 900 
$Comp
L 74xx:74HCT137 U2
U 1 1 5E1D21F4
P 3850 2950
F 0 "U2" H 3850 3731 50  0000 C CNN
F 1 "74HCT137" H 3850 3640 50  0000 C CNN
F 2 "Package_DIP:DIP-16_W7.62mm" H 3850 2950 50  0001 C CNN
F 3 "http://www.ti.com/lit/ds/symlink/cd74hc237.pdf" H 3850 2950 50  0001 C CNN
	1    3850 2950
	1    0    0    -1  
$EndComp
$Comp
L my_Library1:DS-201 XP1
U 1 1 5E21F687
P 1200 900
F 0 "XP1" H 1233 1015 50  0000 C CNN
F 1 "DS-201" H 1233 924 50  0000 C CNN
F 2 "Connector:Banana_Jack_2Pin" H 1100 950 50  0001 C CNN
F 3 "" H 1100 950 50  0001 C CNN
	1    1200 900 
	1    0    0    -1  
$EndComp
$Comp
L my_Library1:IDC-06MS XP2
U 1 1 5E220780
P 9800 850
F 0 "XP2" H 10128 270 50  0000 L CNN
F 1 "IDC-06MS" H 10128 179 50  0000 L CNN
F 2 "Connector_IDC:IDC-Header_2x03_P2.54mm_Horizontal" H 9800 850 50  0001 C CNN
F 3 "" H 9800 850 50  0001 C CNN
	1    9800 850 
	1    0    0    -1  
$EndComp
$Comp
L lab-rescue:ATmega8515-16AU-MCU_Microchip_ATmega U3
U 1 1 5E1C5533
P 9000 4550
F 0 "U3" H 9000 6731 50  0000 C CNN
F 1 "ATmega8515-16AU" H 9000 6640 50  0000 C CNN
F 2 "Package_QFP:TQFP-44_10x10mm_P0.8mm" H 9000 4550 50  0001 C CIN
F 3 "http://ww1.microchip.com/downloads/en/DeviceDoc/doc2512.pdf" H 9000 4550 50  0001 C CNN
	1    9000 4550
	-1   0    0    -1  
$EndComp
NoConn ~ 8400 6050
NoConn ~ 8400 6150
NoConn ~ 8400 3850
NoConn ~ 8400 3950
NoConn ~ 8400 4050
NoConn ~ 8400 4150
Wire Wire Line
	8250 3550 8400 3550
Wire Wire Line
	8250 3450 8400 3450
Wire Wire Line
	8250 3350 8400 3350
Wire Wire Line
	8250 3250 8400 3250
Wire Wire Line
	8250 3150 8400 3150
Wire Wire Line
	8250 3050 8400 3050
Wire Wire Line
	8250 2950 8400 2950
Entry Wire Line
	7350 2200 7450 2300
Entry Wire Line
	7450 2200 7550 2300
Entry Wire Line
	7550 2200 7650 2300
Entry Wire Line
	7650 2200 7750 2300
Entry Wire Line
	7750 2200 7850 2300
Entry Wire Line
	7850 2200 7950 2300
Entry Wire Line
	7950 2200 8050 2300
Entry Wire Line
	8050 2200 8150 2300
Wire Wire Line
	7350 1900 7350 2200
Wire Wire Line
	7450 1900 7450 2200
Wire Wire Line
	7550 1900 7550 2200
Wire Wire Line
	7650 1900 7650 2200
Wire Wire Line
	7750 1900 7750 2200
Wire Wire Line
	8050 1900 8050 2200
Entry Wire Line
	8050 4650 7950 4550
Entry Wire Line
	7950 4650 8050 4750
Entry Wire Line
	7950 4750 8050 4850
Entry Wire Line
	3000 2450 3100 2550
Wire Wire Line
	3100 2550 3450 2550
Wire Wire Line
	3100 2650 3450 2650
Entry Wire Line
	3000 2550 3100 2650
Entry Wire Line
	3000 2650 3100 2750
Wire Wire Line
	3100 2750 3450 2750
Wire Bus Line
	7950 6350 3000 6350
Wire Wire Line
	8050 4650 8400 4650
Wire Wire Line
	8050 4750 8400 4750
Wire Wire Line
	8050 4850 8400 4850
Entry Wire Line
	8150 5250 8250 5350
Entry Wire Line
	8150 5150 8250 5250
Entry Wire Line
	8150 5050 8250 5150
Wire Wire Line
	8400 5150 8250 5150
Wire Wire Line
	8400 5250 8250 5250
Wire Wire Line
	8400 5350 8250 5350
Entry Wire Line
	7050 2300 6950 2200
Entry Wire Line
	7150 2300 7050 2200
Wire Wire Line
	6950 1900 6950 2200
Wire Wire Line
	7050 1900 7050 2200
Wire Wire Line
	7150 2200 7150 1900
Entry Wire Line
	7250 2300 7150 2200
Wire Bus Line
	7100 5450 8150 5450
Wire Wire Line
	8250 5550 8400 5550
Wire Wire Line
	8250 5650 8400 5650
Wire Wire Line
	8250 5750 8400 5750
Wire Wire Line
	8250 5850 8400 5850
Entry Wire Line
	8150 5450 8250 5550
Entry Wire Line
	8150 5550 8250 5650
Entry Wire Line
	8150 5650 8250 5750
Entry Wire Line
	8150 5750 8250 5850
Entry Wire Line
	8150 5850 8250 5950
Entry Wire Line
	7100 3600 7000 3500
Wire Wire Line
	6700 3500 7000 3500
Wire Wire Line
	7000 3950 6700 3950
Wire Wire Line
	7000 4400 6700 4400
Wire Wire Line
	7000 4850 6750 4850
Wire Wire Line
	7000 5250 6750 5250
Entry Wire Line
	7000 3950 7100 4050
Entry Wire Line
	7000 4400 7100 4500
Entry Wire Line
	7000 4850 7100 4950
Entry Wire Line
	7000 5250 7100 5350
Wire Bus Line
	9100 2500 7700 2500
Wire Wire Line
	8400 4450 7800 4450
Entry Wire Line
	7700 4350 7800 4450
Wire Wire Line
	7800 4350 8400 4350
Wire Wire Line
	7800 4250 8400 4250
Entry Wire Line
	7700 4250 7800 4350
Entry Wire Line
	7700 4150 7800 4250
Wire Wire Line
	7800 3750 8400 3750
Entry Wire Line
	9100 1100 9200 1200
Wire Wire Line
	9400 1500 9200 1500
Wire Wire Line
	9400 1650 9200 1650
Entry Wire Line
	9100 1400 9200 1500
Entry Wire Line
	9100 1550 9200 1650
$Comp
L power:+5V #PWR07
U 1 1 5E359D76
P 9250 750
F 0 "#PWR07" H 9250 600 50  0001 C CNN
F 1 "+5V" H 9265 923 50  0000 C CNN
F 2 "" H 9250 750 50  0001 C CNN
F 3 "" H 9250 750 50  0001 C CNN
	1    9250 750 
	1    0    0    -1  
$EndComp
Wire Wire Line
	9400 1950 9300 1950
Wire Wire Line
	9300 1950 9300 2100
$Comp
L power:Earth #PWR08
U 1 1 5E35DFD9
P 9300 2100
F 0 "#PWR08" H 9300 1850 50  0001 C CNN
F 1 "Earth" H 9300 1950 50  0001 C CNN
F 2 "" H 9300 2100 50  0001 C CNN
F 3 "~" H 9300 2100 50  0001 C CNN
	1    9300 2100
	1    0    0    -1  
$EndComp
Wire Wire Line
	9400 1800 9350 1800
Wire Wire Line
	9350 1800 9350 2050
Wire Wire Line
	9350 2050 9700 2050
Wire Wire Line
	9700 2050 9700 2800
Wire Wire Line
	9700 2850 9600 2850
$Comp
L Device:R R6
U 1 1 5E3661EF
P 10200 2250
F 0 "R6" H 10270 2296 50  0000 L CNN
F 1 "10кОм" H 10270 2205 50  0000 L CNN
F 2 "Resistor_THT:R_Axial_DIN0204_L3.6mm_D1.6mm_P7.62mm_Horizontal" V 10130 2250 50  0001 C CNN
F 3 "~" H 10200 2250 50  0001 C CNN
	1    10200 2250
	1    0    0    -1  
$EndComp
$Comp
L Device:C C5
U 1 1 5E21EC54
P 10200 2650
F 0 "C5" H 10315 2696 50  0000 L CNN
F 1 "C" H 10315 2605 50  0000 L CNN
F 2 "Capacitor_SMD:C_0201_0603Metric" H 10238 2500 50  0001 C CNN
F 3 "~" H 10200 2650 50  0001 C CNN
	1    10200 2650
	1    0    0    -1  
$EndComp
Wire Wire Line
	10200 2800 9900 2800
Connection ~ 9700 2800
Wire Wire Line
	9700 2800 9700 2850
Wire Wire Line
	10200 2500 10200 2400
$Comp
L power:+5V #PWR09
U 1 1 5E2256A1
P 10200 1950
F 0 "#PWR09" H 10200 1800 50  0001 C CNN
F 1 "+5V" H 10215 2123 50  0000 C CNN
F 2 "" H 10200 1950 50  0001 C CNN
F 3 "" H 10200 1950 50  0001 C CNN
	1    10200 1950
	1    0    0    -1  
$EndComp
Wire Wire Line
	10200 1950 10200 2100
Wire Wire Line
	9900 2800 9900 3100
Wire Wire Line
	9900 3100 10000 3100
Connection ~ 9900 2800
Wire Wire Line
	9900 2800 9700 2800
$Comp
L Switch:SW_Push SW6
U 1 1 5E22C8D3
P 10200 3100
F 0 "SW6" H 10200 3385 50  0000 C CNN
F 1 "SW_Push" H 10200 3294 50  0000 C CNN
F 2 "Button_Switch_SMD:SW_Push_1P1T_NO_6x6mm_H9.5mm" H 10200 3300 50  0001 C CNN
F 3 "~" H 10200 3300 50  0001 C CNN
	1    10200 3100
	1    0    0    -1  
$EndComp
Wire Wire Line
	10400 3100 10600 3100
Wire Wire Line
	10600 3100 10600 3250
$Comp
L power:Earth #PWR010
U 1 1 5E230DFD
P 10600 3250
F 0 "#PWR010" H 10600 3000 50  0001 C CNN
F 1 "Earth" H 10600 3100 50  0001 C CNN
F 2 "" H 10600 3250 50  0001 C CNN
F 3 "~" H 10600 3250 50  0001 C CNN
	1    10600 3250
	1    0    0    -1  
$EndComp
$Comp
L Regulator_Linear:LM78M05_TO220 U1
U 1 1 5E231E9B
P 2500 800
F 0 "U1" H 2500 1042 50  0000 C CNN
F 1 "LM78M05_TO220" H 2500 951 50  0000 C CNN
F 2 "Package_TO_SOT_THT:TO-220-3_Vertical" H 2500 1025 50  0001 C CIN
F 3 "http://www.fairchildsemi.com/ds/LM/LM78M05.pdf" H 2500 750 50  0001 C CNN
	1    2500 800 
	1    0    0    -1  
$EndComp
Wire Wire Line
	1500 1150 1600 1150
Wire Wire Line
	1600 1150 1600 800 
Wire Wire Line
	1600 800  1750 800 
Wire Wire Line
	2700 800  2800 800 
Wire Wire Line
	1500 1300 1750 1300
$Comp
L Device:C C3
U 1 1 5E244E7B
P 3000 1050
F 0 "C3" H 3115 1096 50  0000 L CNN
F 1 "1мкФ" H 3115 1005 50  0000 L CNN
F 2 "Capacitor_SMD:C_0201_0603Metric" H 3038 900 50  0001 C CNN
F 3 "~" H 3000 1050 50  0001 C CNN
	1    3000 1050
	1    0    0    -1  
$EndComp
$Comp
L Device:C C2
U 1 1 5E2458C1
P 2050 1050
F 0 "C2" H 2165 1096 50  0000 L CNN
F 1 "100нФ" H 2165 1005 50  0000 L CNN
F 2 "Capacitor_SMD:C_0201_0603Metric" H 2088 900 50  0001 C CNN
F 3 "~" H 2050 1050 50  0001 C CNN
	1    2050 1050
	1    0    0    -1  
$EndComp
Wire Wire Line
	3000 800  3000 900 
Wire Wire Line
	3000 1200 3000 1300
Wire Wire Line
	1750 800  1750 900 
Connection ~ 1750 800 
Wire Wire Line
	1750 1200 1750 1300
Connection ~ 1750 1300
Wire Wire Line
	2800 800  3000 800 
Connection ~ 2800 800 
Wire Wire Line
	1750 1300 2050 1300
Wire Wire Line
	1750 800  2050 800 
Wire Wire Line
	2050 800  2050 900 
Connection ~ 2050 800 
Wire Wire Line
	2050 800  2200 800 
Wire Wire Line
	2050 1200 2050 1300
Connection ~ 2050 1300
$Comp
L Device:CP C1
U 1 1 5E28291F
P 1750 1050
F 0 "C1" H 1868 1096 50  0000 L CNN
F 1 "CP" H 1868 1005 50  0000 L CNN
F 2 "Capacitor_SMD:CP_Elec_3x5.3" H 1788 900 50  0001 C CNN
F 3 "~" H 1750 1050 50  0001 C CNN
	1    1750 1050
	1    0    0    -1  
$EndComp
$Comp
L power:+5V #PWR05
U 1 1 5E283055
P 6950 750
F 0 "#PWR05" H 6950 600 50  0001 C CNN
F 1 "+5V" H 6965 923 50  0000 C CNN
F 2 "" H 6950 750 50  0001 C CNN
F 3 "" H 6950 750 50  0001 C CNN
	1    6950 750 
	1    0    0    -1  
$EndComp
$Comp
L power:+5V #PWR02
U 1 1 5E283CFF
P 3200 2050
F 0 "#PWR02" H 3200 1900 50  0001 C CNN
F 1 "+5V" H 3215 2223 50  0000 C CNN
F 2 "" H 3200 2050 50  0001 C CNN
F 3 "" H 3200 2050 50  0001 C CNN
	1    3200 2050
	1    0    0    -1  
$EndComp
Wire Wire Line
	3200 2050 3200 2100
Wire Wire Line
	3200 3150 3450 3150
$Comp
L Device:C C4
U 1 1 5E28FE26
P 3200 2250
F 0 "C4" H 3315 2296 50  0000 L CNN
F 1 "8нФ" H 3315 2205 50  0000 L CNN
F 2 "Capacitor_SMD:C_0201_0603Metric" H 3238 2100 50  0001 C CNN
F 3 "~" H 3200 2250 50  0001 C CNN
	1    3200 2250
	1    0    0    -1  
$EndComp
Wire Wire Line
	3200 2400 3200 3150
Wire Wire Line
	9600 3050 9850 3050
Wire Wire Line
	9850 3050 9850 3500
Wire Wire Line
	9600 3250 9650 3250
$Comp
L Device:Crystal Y1
U 1 1 5E29BB75
P 10000 3650
F 0 "Y1" V 9954 3781 50  0000 L CNN
F 1 "4MHz" V 10045 3781 50  0000 L CNN
F 2 "Crystal:Crystal_HC49-U_Horizontal" H 10000 3650 50  0001 C CNN
F 3 "~" H 10000 3650 50  0001 C CNN
	1    10000 3650
	0    1    1    0   
$EndComp
Connection ~ 10000 3500
Wire Wire Line
	10000 3500 10200 3500
Wire Wire Line
	9650 3250 9650 3800
Connection ~ 10000 3800
Wire Wire Line
	10000 3800 10200 3800
$Comp
L Device:C C6
U 1 1 5E2A88F4
P 10350 3500
F 0 "C6" V 10098 3500 50  0000 C CNN
F 1 "22пФ" V 10189 3500 50  0000 C CNN
F 2 "Capacitor_SMD:C_0201_0603Metric" H 10388 3350 50  0001 C CNN
F 3 "~" H 10350 3500 50  0001 C CNN
	1    10350 3500
	0    1    1    0   
$EndComp
$Comp
L Device:C C7
U 1 1 5E2A8F5B
P 10350 3800
F 0 "C7" V 10098 3800 50  0000 C CNN
F 1 "22пФ" V 10189 3800 50  0000 C CNN
F 2 "Capacitor_SMD:C_0201_0603Metric" H 10388 3650 50  0001 C CNN
F 3 "~" H 10350 3800 50  0001 C CNN
	1    10350 3800
	0    1    1    0   
$EndComp
Wire Wire Line
	9650 3800 10000 3800
Wire Wire Line
	9850 3500 10000 3500
Wire Wire Line
	10500 3500 10750 3500
Wire Wire Line
	10750 3500 10750 3650
Wire Wire Line
	10500 3800 10600 3800
$Comp
L power:Earth #PWR012
U 1 1 5E2BB6B8
P 10750 3650
F 0 "#PWR012" H 10750 3400 50  0001 C CNN
F 1 "Earth" H 10750 3500 50  0001 C CNN
F 2 "" H 10750 3650 50  0001 C CNN
F 3 "~" H 10750 3650 50  0001 C CNN
	1    10750 3650
	1    0    0    -1  
$EndComp
Wire Wire Line
	10600 3800 10600 3950
$Comp
L power:Earth #PWR011
U 1 1 5E2BC299
P 10600 3950
F 0 "#PWR011" H 10600 3700 50  0001 C CNN
F 1 "Earth" H 10600 3800 50  0001 C CNN
F 2 "" H 10600 3950 50  0001 C CNN
F 3 "~" H 10600 3950 50  0001 C CNN
	1    10600 3950
	1    0    0    -1  
$EndComp
NoConn ~ 9600 5750
NoConn ~ 9600 5650
NoConn ~ 9600 5550
NoConn ~ 8400 6250
NoConn ~ 3450 2950
NoConn ~ 4250 3250
NoConn ~ 4250 3150
NoConn ~ 4250 3050
Wire Wire Line
	8250 5950 8400 5950
Entry Wire Line
	7700 3850 7800 3750
Entry Wire Line
	8150 3650 8250 3550
Entry Wire Line
	8150 3550 8250 3450
Entry Wire Line
	8150 3450 8250 3350
Entry Wire Line
	8150 3350 8250 3250
Entry Wire Line
	8150 3250 8250 3150
Entry Wire Line
	8150 3150 8250 3050
Entry Wire Line
	8150 3050 8250 2950
Entry Wire Line
	8150 2950 8250 2850
Wire Wire Line
	8250 2850 8400 2850
Wire Wire Line
	9200 1200 9400 1200
Wire Wire Line
	3250 3250 3450 3250
Text Label 6950 1950 0    50   ~ 0
A1
Text Label 7050 1950 0    50   ~ 0
A2
Text Label 7150 1950 0    50   ~ 0
A3
Text Label 7350 1950 0    50   ~ 0
A4
Text Label 7450 1950 0    50   ~ 0
A5
Text Label 7550 1950 0    50   ~ 0
A6
Text Label 7650 1950 0    50   ~ 0
A7
Text Label 8300 2850 0    50   ~ 0
A4
Text Label 8300 2950 0    50   ~ 0
A5
Text Label 8300 3050 0    50   ~ 0
A6
Text Label 8300 3150 0    50   ~ 0
A7
Text Label 8300 3350 0    50   ~ 0
A9
Text Label 8250 3550 0    50   ~ 0
A11
Text Label 8250 3450 0    50   ~ 0
A10
Text Label 8300 3250 0    50   ~ 0
A8
Text Label 8250 5350 0    50   ~ 0
A1
Text Label 8250 5250 0    50   ~ 0
A3
Text Label 8250 5150 0    50   ~ 0
A2
NoConn ~ 8400 5050
Wire Wire Line
	7850 1900 7850 2200
Wire Wire Line
	7950 1900 7950 2200
Text Label 7750 1950 0    50   ~ 0
A8
Text Label 7850 1950 0    50   ~ 0
A9
Text Label 7950 1950 0    50   ~ 0
A10
Text Label 8050 1950 0    50   ~ 0
A11
Text Label 8250 3750 0    50   ~ 0
B1
Text Label 8050 4250 0    50   ~ 0
SPI_MOSI
Text Label 8050 4350 0    50   ~ 0
SPI_MISO
Text Label 8050 4450 0    50   ~ 0
SPI_SCK
Wire Wire Line
	6050 5250 6050 4850
Connection ~ 6050 3500
Wire Wire Line
	6050 3500 6050 3000
Connection ~ 6050 3950
Wire Wire Line
	6050 3950 6050 3500
Connection ~ 6050 4400
Wire Wire Line
	6050 4400 6050 3950
Connection ~ 6050 4850
Wire Wire Line
	6050 4850 6050 4400
Entry Wire Line
	7700 3100 7600 3000
Wire Wire Line
	6050 3000 7600 3000
Text Label 7500 3000 0    50   ~ 0
B1
Text Label 9200 1200 0    50   ~ 0
SPI_MISO
Text Label 9200 1500 0    50   ~ 0
SPI_SCK
Text Label 9200 1650 0    50   ~ 0
SPI_MOSI
Text Label 8300 4650 0    50   ~ 0
E1
Text Label 8300 4750 0    50   ~ 0
E2
Text Label 8300 4850 0    50   ~ 0
E3
Text Label 3350 2550 0    50   ~ 0
E1
Text Label 3350 2650 0    50   ~ 0
E2
Text Label 3350 2750 0    50   ~ 0
E3
NoConn ~ 7050 900 
NoConn ~ 8400 4950
Text Label 8250 5550 0    50   ~ 0
S1
Text Label 8250 5650 0    50   ~ 0
S2
Text Label 8250 5750 0    50   ~ 0
S3
Text Label 8250 5850 0    50   ~ 0
S4
Text Label 8250 5950 0    50   ~ 0
S5
Text Label 6950 3500 0    50   ~ 0
S1
Text Label 6950 3950 0    50   ~ 0
S2
Text Label 6950 4400 0    50   ~ 0
S3
Text Label 6950 4850 0    50   ~ 0
S4
Text Label 6950 5250 0    50   ~ 0
S5
Wire Wire Line
	2050 1300 3000 1300
Wire Wire Line
	8050 900  9000 900 
$Comp
L power:Earth #PWR01
U 1 1 5E40EADB
P 2500 1200
F 0 "#PWR01" H 2500 950 50  0001 C CNN
F 1 "Earth" H 2500 1050 50  0001 C CNN
F 2 "" H 2500 1200 50  0001 C CNN
F 3 "~" H 2500 1200 50  0001 C CNN
	1    2500 1200
	1    0    0    -1  
$EndComp
Wire Wire Line
	9250 750  9250 1350
Wire Wire Line
	9250 1350 9400 1350
Wire Wire Line
	3650 750  3900 750 
Connection ~ 3900 750 
Wire Wire Line
	3900 750  4200 750 
Connection ~ 4200 750 
Wire Wire Line
	4200 750  4500 750 
Connection ~ 4500 750 
Wire Wire Line
	4500 750  4750 750 
Connection ~ 4750 750 
Wire Wire Line
	4750 750  5150 750 
$Comp
L power:Earth #PWR04
U 1 1 5E432DE3
P 5150 1000
F 0 "#PWR04" H 5150 750 50  0001 C CNN
F 1 "Earth" H 5150 850 50  0001 C CNN
F 2 "" H 5150 1000 50  0001 C CNN
F 3 "~" H 5150 1000 50  0001 C CNN
	1    5150 1000
	1    0    0    -1  
$EndComp
Wire Wire Line
	2500 1100 2500 1200
Wire Wire Line
	6950 750  6950 900 
Wire Wire Line
	5150 1000 5150 750 
$Comp
L power:+5V #PWR?
U 1 1 5E2D5CCD
P 9000 2150
F 0 "#PWR?" H 9000 2000 50  0001 C CNN
F 1 "+5V" H 9015 2323 50  0000 C CNN
F 2 "" H 9000 2150 50  0001 C CNN
F 3 "" H 9000 2150 50  0001 C CNN
	1    9000 2150
	1    0    0    -1  
$EndComp
Wire Wire Line
	9000 2150 9000 2550
$Comp
L power:+5V #PWR?
U 1 1 5E2DD495
P 3850 2050
F 0 "#PWR?" H 3850 1900 50  0001 C CNN
F 1 "+5V" H 3865 2223 50  0000 C CNN
F 2 "" H 3850 2050 50  0001 C CNN
F 3 "" H 3850 2050 50  0001 C CNN
	1    3850 2050
	1    0    0    -1  
$EndComp
Wire Wire Line
	3850 2050 3850 2350
Wire Bus Line
	9100 1050 9100 2500
Wire Bus Line
	8150 5450 8150 6200
Wire Bus Line
	3000 2400 3000 6350
Wire Bus Line
	7950 4500 7950 6350
Wire Bus Line
	7100 3200 7100 5450
Wire Bus Line
	7700 2500 7700 4450
Wire Bus Line
	6800 2300 8150 2300
Wire Bus Line
	8150 2300 8150 5350
$Comp
L power:Earth #PWR?
U 1 1 5E2E49F5
P 3850 3450
F 0 "#PWR?" H 3850 3200 50  0001 C CNN
F 1 "Earth" H 3850 3300 50  0001 C CNN
F 2 "" H 3850 3450 50  0001 C CNN
F 3 "~" H 3850 3450 50  0001 C CNN
	1    3850 3450
	1    0    0    -1  
$EndComp
$Comp
L power:Earth #PWR?
U 1 1 5E2E5CA0
P 9000 6550
F 0 "#PWR?" H 9000 6300 50  0001 C CNN
F 1 "Earth" H 9000 6400 50  0001 C CNN
F 2 "" H 9000 6550 50  0001 C CNN
F 3 "~" H 9000 6550 50  0001 C CNN
	1    9000 6550
	1    0    0    -1  
$EndComp
$EndSCHEMATC
