EESchema Schematic File Version 4
LIBS:lab-cache
EELAYER 30 0
EELAYER END
$Descr A4 11693 8268
encoding utf-8
Sheet 1 1
Title ""
Date ""
Rev ""
Comp ""
Comment1 ""
Comment2 ""
Comment3 ""
Comment4 ""
$EndDescr
$Comp
L Device:R R5
U 1 1 5E1B4510
P 4800 2100
F 0 "R5" H 4870 2146 50  0000 L CNN
F 1 "2R" H 4870 2055 50  0000 L CNN
F 2 "Resistor_THT:R_Axial_DIN0207_L6.3mm_D2.5mm_P7.62mm_Horizontal" V 4730 2100 50  0001 C CNN
F 3 "~" H 4800 2100 50  0001 C CNN
	1    4800 2100
	1    0    0    -1  
$EndComp
$Comp
L Device:R R4
U 1 1 5E1B4943
P 4550 2100
F 0 "R4" H 4620 2146 50  0000 L CNN
F 1 "2R" H 4620 2055 50  0000 L CNN
F 2 "Resistor_THT:R_Axial_DIN0207_L6.3mm_D2.5mm_P7.62mm_Horizontal" V 4480 2100 50  0001 C CNN
F 3 "~" H 4550 2100 50  0001 C CNN
	1    4550 2100
	1    0    0    -1  
$EndComp
$Comp
L Device:R R3
U 1 1 5E1B4ADF
P 4300 2100
F 0 "R3" H 4370 2146 50  0000 L CNN
F 1 "2R" H 4370 2055 50  0000 L CNN
F 2 "Resistor_THT:R_Axial_DIN0207_L6.3mm_D2.5mm_P7.62mm_Horizontal" V 4230 2100 50  0001 C CNN
F 3 "~" H 4300 2100 50  0001 C CNN
	1    4300 2100
	1    0    0    -1  
$EndComp
$Comp
L Device:R R2
U 1 1 5E1B52E4
P 4100 2100
F 0 "R2" H 4170 2146 50  0000 L CNN
F 1 "2R" H 4170 2055 50  0000 L CNN
F 2 "Resistor_THT:R_Axial_DIN0207_L6.3mm_D2.5mm_P7.62mm_Horizontal" V 4030 2100 50  0001 C CNN
F 3 "~" H 4100 2100 50  0001 C CNN
	1    4100 2100
	1    0    0    -1  
$EndComp
$Comp
L Device:R R1
U 1 1 5E1B5503
P 3900 2100
F 0 "R1" H 3970 2146 50  0000 L CNN
F 1 "2R" H 3970 2055 50  0000 L CNN
F 2 "Resistor_THT:R_Axial_DIN0207_L6.3mm_D2.5mm_P7.62mm_Horizontal" V 3830 2100 50  0001 C CNN
F 3 "~" H 3900 2100 50  0001 C CNN
	1    3900 2100
	1    0    0    -1  
$EndComp
$Comp
L Switch:SW_Push SW4
U 1 1 5E1BC2F2
P 6100 5150
F 0 "SW4" H 6100 5435 50  0000 C CNN
F 1 "SW_Push" H 6100 5344 50  0000 C CNN
F 2 "Button_Switch_SMD:SW_Push_1P1T_NO_6x6mm_H9.5mm" H 6100 5350 50  0001 C CNN
F 3 "~" H 6100 5350 50  0001 C CNN
	1    6100 5150
	1    0    0    -1  
$EndComp
$Comp
L Switch:SW_Push SW3
U 1 1 5E1BCB3A
P 6050 4700
F 0 "SW3" H 6050 4985 50  0000 C CNN
F 1 "SW_Push" H 6050 4894 50  0000 C CNN
F 2 "Button_Switch_SMD:SW_Push_1P1T_NO_6x6mm_H9.5mm" H 6050 4900 50  0001 C CNN
F 3 "~" H 6050 4900 50  0001 C CNN
	1    6050 4700
	1    0    0    -1  
$EndComp
$Comp
L Switch:SW_Push SW2
U 1 1 5E1BD0B9
P 6050 4250
F 0 "SW2" H 6050 4535 50  0000 C CNN
F 1 "SW_Push" H 6050 4444 50  0000 C CNN
F 2 "Button_Switch_SMD:SW_Push_1P1T_NO_6x6mm_H9.5mm" H 6050 4450 50  0001 C CNN
F 3 "~" H 6050 4450 50  0001 C CNN
	1    6050 4250
	1    0    0    -1  
$EndComp
$Comp
L Switch:SW_Push SW5
U 1 1 5E1BDCF4
P 6100 5550
F 0 "SW5" H 6100 5835 50  0000 C CNN
F 1 "SW_Push" H 6100 5744 50  0000 C CNN
F 2 "Button_Switch_SMD:SW_Push_1P1T_NO_6x6mm_H9.5mm" H 6100 5750 50  0001 C CNN
F 3 "~" H 6100 5750 50  0001 C CNN
	1    6100 5550
	1    0    0    -1  
$EndComp
$Comp
L Switch:SW_Push SW1
U 1 1 5E1BE0A1
P 6050 3800
F 0 "SW1" H 6050 4085 50  0000 C CNN
F 1 "SW_Push" H 6050 3994 50  0000 C CNN
F 2 "Button_Switch_SMD:SW_Push_1P1T_NO_6x6mm_H9.5mm" H 6050 4000 50  0001 C CNN
F 3 "~" H 6050 4000 50  0001 C CNN
	1    6050 3800
	1    0    0    -1  
$EndComp
$Comp
L power:Earth #PWR0101
U 1 1 5E1C0482
P 5600 5550
F 0 "#PWR0101" H 5600 5300 50  0001 C CNN
F 1 "Earth" H 5600 5400 50  0001 C CNN
F 2 "" H 5600 5550 50  0001 C CNN
F 3 "~" H 5600 5550 50  0001 C CNN
	1    5600 5550
	0    1    1    0   
$EndComp
$Comp
L power:Earth #PWR0102
U 1 1 5E1C0C85
P 5600 5150
F 0 "#PWR0102" H 5600 4900 50  0001 C CNN
F 1 "Earth" H 5600 5000 50  0001 C CNN
F 2 "" H 5600 5150 50  0001 C CNN
F 3 "~" H 5600 5150 50  0001 C CNN
	1    5600 5150
	0    1    1    0   
$EndComp
$Comp
L power:Earth #PWR0103
U 1 1 5E1C1038
P 5600 4700
F 0 "#PWR0103" H 5600 4450 50  0001 C CNN
F 1 "Earth" H 5600 4550 50  0001 C CNN
F 2 "" H 5600 4700 50  0001 C CNN
F 3 "~" H 5600 4700 50  0001 C CNN
	1    5600 4700
	0    1    1    0   
$EndComp
$Comp
L power:Earth #PWR0104
U 1 1 5E1C139E
P 5600 4250
F 0 "#PWR0104" H 5600 4000 50  0001 C CNN
F 1 "Earth" H 5600 4100 50  0001 C CNN
F 2 "" H 5600 4250 50  0001 C CNN
F 3 "~" H 5600 4250 50  0001 C CNN
	1    5600 4250
	0    1    1    0   
$EndComp
$Comp
L power:Earth #PWR0105
U 1 1 5E1C1770
P 5600 3800
F 0 "#PWR0105" H 5600 3550 50  0001 C CNN
F 1 "Earth" H 5600 3650 50  0001 C CNN
F 2 "" H 5600 3800 50  0001 C CNN
F 3 "~" H 5600 3800 50  0001 C CNN
	1    5600 3800
	0    1    1    0   
$EndComp
$Comp
L lab-rescue:ATmega8515-16AU-MCU_Microchip_ATmega U2
U 1 1 5E1C5533
P 8250 4500
F 0 "U2" H 8250 6681 50  0000 C CNN
F 1 "ATmega8515-16AU" H 8250 6590 50  0000 C CNN
F 2 "Package_QFP:TQFP-44_10x10mm_P0.8mm" H 8250 4500 50  0001 C CIN
F 3 "http://ww1.microchip.com/downloads/en/DeviceDoc/doc2512.pdf" H 8250 4500 50  0001 C CNN
	1    8250 4500
	-1   0    0    -1  
$EndComp
$Comp
L lab-rescue:LM016L-LM016L DS1
U 1 1 5E1D4471
P 6950 1300
F 0 "DS1" V 6896 570 50  0000 R CNN
F 1 "LM016L" V 6805 570 50  0000 R CNN
F 2 "Display:LM16255" H 6950 1300 50  0000 L BNN
F 3 "Hitachi" H 6950 1300 50  0001 L BNN
	1    6950 1300
	0    -1   -1   0   
$EndComp
Wire Wire Line
	5600 3800 5850 3800
Wire Wire Line
	5600 4250 5850 4250
Wire Wire Line
	5600 4700 5850 4700
Wire Wire Line
	5600 5150 5900 5150
Wire Wire Line
	5600 5550 5900 5550
Wire Wire Line
	6250 3800 6800 3800
Wire Wire Line
	6700 4250 6250 4250
Wire Wire Line
	6250 4700 6550 4700
Wire Wire Line
	6300 5150 6450 5150
Wire Wire Line
	7100 6250 7100 6200
Wire Wire Line
	6800 3800 6800 5500
Wire Wire Line
	6700 4250 6700 5600
Wire Wire Line
	6550 4700 6550 5700
Wire Wire Line
	6450 5150 6450 5800
Wire Wire Line
	6300 5550 6300 5900
$Comp
L power:Earth #PWR0106
U 1 1 5E1DACFC
P 8500 900
F 0 "#PWR0106" H 8500 650 50  0001 C CNN
F 1 "Earth" H 8500 750 50  0001 C CNN
F 2 "" H 8500 900 50  0001 C CNN
F 3 "~" H 8500 900 50  0001 C CNN
	1    8500 900 
	0    -1   -1   0   
$EndComp
Wire Wire Line
	6300 5900 7650 5900
Wire Wire Line
	6450 5800 7650 5800
Wire Wire Line
	6550 5700 7650 5700
Wire Wire Line
	6700 5600 7650 5600
Wire Wire Line
	6800 5500 7650 5500
Wire Wire Line
	6950 5300 7650 5300
Wire Wire Line
	7000 5200 7650 5200
Wire Wire Line
	7050 5100 7650 5100
Wire Wire Line
	6850 1900 6850 2800
Wire Wire Line
	6850 2800 7650 2800
Wire Wire Line
	6950 1900 6950 2900
Wire Wire Line
	6950 2900 7650 2900
Wire Wire Line
	7050 1900 7050 3000
Wire Wire Line
	7050 3000 7650 3000
Wire Wire Line
	7150 1900 7150 3100
Wire Wire Line
	7150 3100 7650 3100
Wire Wire Line
	7250 1900 7250 3200
Wire Wire Line
	7250 3200 7650 3200
Wire Wire Line
	7350 1900 7350 3300
Wire Wire Line
	7350 3300 7650 3300
Wire Wire Line
	7450 1900 7450 3400
Wire Wire Line
	7450 3400 7650 3400
Wire Wire Line
	7550 1900 7550 3500
Wire Wire Line
	7550 3500 7650 3500
Wire Wire Line
	7050 5100 7050 3450
Wire Wire Line
	7050 3450 6550 3450
Wire Wire Line
	6550 3450 6550 1900
Wire Wire Line
	6950 5300 6950 3600
Wire Wire Line
	6950 3600 6450 3600
Wire Wire Line
	6450 3600 6450 1900
Wire Wire Line
	7000 5200 7000 3300
Wire Wire Line
	7000 3300 6650 3300
Wire Wire Line
	6650 3300 6650 1900
Wire Wire Line
	7550 900  8500 900 
$Comp
L power:+1V5 #PWR0107
U 1 1 5E200C16
P 5450 2050
F 0 "#PWR0107" H 5450 1900 50  0001 C CNN
F 1 "+1V5" H 5465 2223 50  0000 C CNN
F 2 "" H 5450 2050 50  0001 C CNN
F 3 "" H 5450 2050 50  0001 C CNN
	1    5450 2050
	1    0    0    -1  
$EndComp
Wire Wire Line
	6100 2050 6100 900 
Wire Wire Line
	6100 900  6450 900 
Wire Wire Line
	5450 2050 6100 2050
Wire Wire Line
	2950 3150 2550 3150
Wire Wire Line
	2550 3150 2550 3800
Wire Wire Line
	2550 3800 5250 3800
Wire Wire Line
	5250 3800 5250 2050
Wire Wire Line
	5250 2050 5450 2050
Connection ~ 5450 2050
$Comp
L power:Earth #PWR0108
U 1 1 5E208E65
P 2750 3250
F 0 "#PWR0108" H 2750 3000 50  0001 C CNN
F 1 "Earth" H 2750 3100 50  0001 C CNN
F 2 "" H 2750 3250 50  0001 C CNN
F 3 "~" H 2750 3250 50  0001 C CNN
	1    2750 3250
	0    1    1    0   
$EndComp
Wire Wire Line
	2750 3250 2950 3250
Wire Wire Line
	3750 2550 3900 2550
Wire Wire Line
	3900 2550 3900 2250
Wire Wire Line
	3750 2650 4100 2650
Wire Wire Line
	4100 2650 4100 2250
Wire Wire Line
	3750 2750 4300 2750
Wire Wire Line
	4300 2750 4300 2250
Wire Wire Line
	3750 2850 4550 2850
Wire Wire Line
	4550 2850 4550 2250
Wire Wire Line
	3750 2950 4800 2950
Wire Wire Line
	4800 2950 4800 2250
Wire Wire Line
	3900 1950 3900 1750
Wire Wire Line
	3900 1750 3150 1750
Wire Wire Line
	4100 1950 4100 1700
Wire Wire Line
	4100 1700 3400 1700
Wire Wire Line
	4300 1950 4300 1650
Wire Wire Line
	4300 1650 3700 1650
Wire Wire Line
	4550 1950 4550 1600
Wire Wire Line
	4550 1600 4000 1600
Wire Wire Line
	4800 1950 4800 1550
Wire Wire Line
	4800 1550 4250 1550
Wire Wire Line
	7650 4600 7150 4600
Wire Wire Line
	7150 4600 7150 6250
Wire Wire Line
	7150 6250 7100 6250
Wire Wire Line
	2350 6250 2350 2550
Connection ~ 7100 6250
Wire Wire Line
	7100 6250 2350 6250
Wire Wire Line
	7650 4700 7200 4700
Wire Wire Line
	7200 4700 7200 6300
Wire Wire Line
	7200 6300 2400 6300
Wire Wire Line
	7650 4800 7250 4800
Wire Wire Line
	7250 4800 7250 6350
Wire Wire Line
	7250 6350 2450 6350
Wire Wire Line
	2450 6350 2450 2750
Wire Wire Line
	2450 2750 2950 2750
Wire Wire Line
	2950 2600 2950 2650
Wire Wire Line
	2350 2550 2950 2550
$Comp
L 74xx:74HCT137 U1
U 1 1 5E1D21F4
P 3350 2950
F 0 "U1" H 3350 3731 50  0000 C CNN
F 1 "74HCT137" H 3350 3640 50  0000 C CNN
F 2 "Package_DIP:DIP-16_W7.62mm" H 3350 2950 50  0001 C CNN
F 3 "http://www.ti.com/lit/ds/symlink/cd74hc237.pdf" H 3350 2950 50  0001 C CNN
	1    3350 2950
	1    0    0    -1  
$EndComp
Wire Wire Line
	2400 2600 2950 2600
Wire Wire Line
	2400 2600 2400 6300
$EndSCHEMATC
